{	"name": "earthdawn-panda-bestiary",
	"title": "Earthdawn Panda Bestiary",
	"description": "The Panda's Gaming Grove Bestiary",
	"author": "Tom LaPorta and Patrick Mohrmann",
	"version": "1.0.0",
	"minimumCoreVersion": "0.8.4",
	"compatibleCoreVersion":"0.8.9",
    "download": "https://gitlab.com/fattom23/earthdawn-panda-bestiary/-/raw/main/earthdawn-panda-bestiary-main.zip",
	"packs":[{
		"name": "panda-bestiary",
	    "label": "Panda Bestiary",
        "path": "packs/panda-bestiary.db",
        "entity": "Actor",
        "module": "earthdawn-companion"
	}
	]

}	
